%YAML 1.1
%TAG !u! tag:unity3d.com,2011:
--- !u!114 &11400000
MonoBehaviour:
  m_ObjectHideFlags: 0
  m_CorrespondingSourceObject: {fileID: 0}
  m_PrefabInstance: {fileID: 0}
  m_PrefabAsset: {fileID: 0}
  m_GameObject: {fileID: 0}
  m_Enabled: 1
  m_EditorHideFlags: 0
  m_Script: {fileID: 11500000, guid: 4ef0f39c89bcd9944a1d7c0966e5d323, type: 3}
  m_Name: Combo defensive
  m_EditorClassIdentifier: 
  Combination: 7a0000007a0000007a000000
  animation: {fileID: -203655887218126122, guid: be0b11320c9e57745810e780d9b31a88,
    type: 3}
  Damage: 200
